{
	"customer": {
    		"customerId": "999009999",
		    "organizationCode": "DEFAULT",
    		"addressList": [{
        "address": {
          "addressType": "BillTo",
          "addressLine1": "1 Main St",
          "addressLine2": "",
          "city": "Boston",
          "dayPhone": "508-999-9999",
          "emailId": "abc@gmail.com",
          "firstName": "John",
          "lastName": "D",
          "middleName": "John D",
          "mobile": "508-888-8888",
          "otherPhone": "",
          "personId": "1",
          "preferredShipAddress": "",
          "stateProvinceAbbreviation": "MA",
          "countryAbbreviation": "US",
          "zipPostalCode": "99999-9999",
          "createdDate": "2016-03-16T05:07:19Z",
          "lastModifiedDate": "2016-03-16T05:07:19Z"
        }
      }, {
        "address": {
          "addressType": "ShipTo",
          "addressLine1": "2 Main St",
          "addressLine2": "",
          "city": "Boston",
          "dayPhone": "508-999-9999",
          "emailId": "abc@gmail.com",
          "firstName": "John",
          "lastName": "D",
          "middleName": "John D",
          "mobile": "508-888-8888",
          "otherPhone": "",
          "personId": "1",
          "preferredShipAddress": "",
          "stateProvinceAbbreviation": "MA",
          "countryAbbreviation": "US",
          "zipPostalCode": "99999-9999",
          "createdDate": "2016-03-16T05:07:19Z",
          "lastModifiedDate": "2016-03-16T05:07:19Z"
        }
      }],

		"createdDate": "2016-03-16T05:07:19Z",
		"lastModifiedDate": "2016-03-16T05:07:19Z"
	}
}